^C:\USERS\ENO TOLEDO\DOCUMENTS\3TSY16-BP2TG101A-TOLEDO-ENO-MIGUEL\QUIZ\QUIZ 1\QUIZ 1\DEBUG\QUIZ 1.OBJ
C:\USERS\ENO TOLEDO\DOCUMENTS\3TSY16-BP2TG101A-TOLEDO-ENO-MIGUEL\QUIZ\QUIZ 1\DEBUG\QUIZ 1.ILK
C:\USERS\ENO TOLEDO\DOCUMENTS\3TSY16-BP2TG101A-TOLEDO-ENO-MIGUEL\QUIZ\QUIZ 1\DEBUG\QUIZ 1.EXE
C:\USERS\ENO TOLEDO\DOCUMENTS\3TSY16-BP2TG101A-TOLEDO-ENO-MIGUEL\QUIZ\QUIZ 1\DEBUG\QUIZ 1.PDB
