^C:\USERS\11550243\DESKTOP\WEW\WEW\WEW.CPP
/c /ZI /nologo /W3 /WX- /sdl /Od /Oy- /D WIN32 /D _DEBUG /D _CONSOLE /D _UNICODE /D UNICODE /Gm /EHsc /RTC1 /MDd /GS /fp:precise /Zc:wchar_t /Zc:forScope /Zc:inline /Fo"DEBUG\\" /Fd"DEBUG\VC140.PDB" /Gd /TP /analyze- C:\USERS\11550243\DESKTOP\WEW\WEW\WEW.CPP
^C:\USERS\11550243\DOCUMENTS\3TSY16-BP2TG101A-TOLEDO-ENO-MIGUEL\EXERCISE\WEW\WEW\WEW.CPP
/c /ZI /nologo /W3 /WX- /sdl /Od /Oy- /D WIN32 /D _DEBUG /D _CONSOLE /D _UNICODE /D UNICODE /Gm /EHsc /RTC1 /MDd /GS /fp:precise /Zc:wchar_t /Zc:forScope /Zc:inline /Fo"DEBUG\\" /Fd"DEBUG\VC140.PDB" /Gd /TP /analyze- C:\USERS\11550243\DOCUMENTS\3TSY16-BP2TG101A-TOLEDO-ENO-MIGUEL\EXERCISE\WEW\WEW\WEW.CPP
