^C:\USERS\11550243\DOCUMENTS\3TSY16-BP2TG101A-TOLEDO-ENO-MIGUEL\EXERCISE\WEW\EXERCISE 3-3\DEBUG\EXERCISE 3-3.OBJ
C:\USERS\11550243\DOCUMENTS\3TSY16-BP2TG101A-TOLEDO-ENO-MIGUEL\EXERCISE\WEW\DEBUG\EXERCISE 3-3.ILK
C:\USERS\11550243\DOCUMENTS\3TSY16-BP2TG101A-TOLEDO-ENO-MIGUEL\EXERCISE\WEW\DEBUG\EXERCISE 3-3.EXE
C:\USERS\11550243\DOCUMENTS\3TSY16-BP2TG101A-TOLEDO-ENO-MIGUEL\EXERCISE\WEW\DEBUG\EXERCISE 3-3.PDB
