^C:\USERS\ENO TOLEDO\DOCUMENTS\3TSY16-BP2TG101A-TOLEDO-ENO-MIGUEL\EMPEROR CARDS\EMPEROR CARDS\X64\DEBUG\EMPEROR CARDS.OBJ
/OUT:"C:\USERS\ENO TOLEDO\DOCUMENTS\3TSY16-BP2TG101A-TOLEDO-ENO-MIGUEL\EMPEROR CARDS\X64\DEBUG\EMPEROR CARDS.EXE" /INCREMENTAL /NOLOGO KERNEL32.LIB USER32.LIB GDI32.LIB WINSPOOL.LIB COMDLG32.LIB ADVAPI32.LIB SHELL32.LIB OLE32.LIB OLEAUT32.LIB UUID.LIB ODBC32.LIB ODBCCP32.LIB /MANIFEST /MANIFESTUAC:"level='asInvoker' uiAccess='false'" /manifest:embed /Debug /PDB:"C:\USERS\ENO TOLEDO\DOCUMENTS\3TSY16-BP2TG101A-TOLEDO-ENO-MIGUEL\EMPEROR CARDS\X64\DEBUG\EMPEROR CARDS.PDB" /SUBSYSTEM:CONSOLE /TLBID:1 /DYNAMICBASE /NXCOMPAT /IMPLIB:"C:\USERS\ENO TOLEDO\DOCUMENTS\3TSY16-BP2TG101A-TOLEDO-ENO-MIGUEL\EMPEROR CARDS\X64\DEBUG\EMPEROR CARDS.LIB" /MACHINE:X64 "X64\DEBUG\EMPEROR CARDS.OBJ"
^C:\USERS\11550243\DOCUMENTS\3TSY16-BP2TG101A-TOLEDO-ENO-MIGUEL\EMPEROR CARDS\EMPEROR CARDS\X64\DEBUG\EMPEROR CARDS.OBJ
/OUT:"C:\USERS\11550243\DOCUMENTS\3TSY16-BP2TG101A-TOLEDO-ENO-MIGUEL\EMPEROR CARDS\X64\DEBUG\EMPEROR CARDS.EXE" /INCREMENTAL /NOLOGO KERNEL32.LIB USER32.LIB GDI32.LIB WINSPOOL.LIB COMDLG32.LIB ADVAPI32.LIB SHELL32.LIB OLE32.LIB OLEAUT32.LIB UUID.LIB ODBC32.LIB ODBCCP32.LIB /MANIFEST /MANIFESTUAC:"level='asInvoker' uiAccess='false'" /manifest:embed /Debug /PDB:"C:\USERS\11550243\DOCUMENTS\3TSY16-BP2TG101A-TOLEDO-ENO-MIGUEL\EMPEROR CARDS\X64\DEBUG\EMPEROR CARDS.PDB" /SUBSYSTEM:CONSOLE /TLBID:1 /DYNAMICBASE /NXCOMPAT /IMPLIB:"C:\USERS\11550243\DOCUMENTS\3TSY16-BP2TG101A-TOLEDO-ENO-MIGUEL\EMPEROR CARDS\X64\DEBUG\EMPEROR CARDS.LIB" /MACHINE:X64 "X64\DEBUG\EMPEROR CARDS.OBJ"
