^C:\USERS\11550243\DOCUMENTS\VISUAL STUDIO 2015\PROJECTS\EXERCISE 5\EXERCISE 5\DEBUG\CIRCLE.OBJ|C:\USERS\11550243\DOCUMENTS\VISUAL STUDIO 2015\PROJECTS\EXERCISE 5\EXERCISE 5\DEBUG\MAIN.OBJ|C:\USERS\11550243\DOCUMENTS\VISUAL STUDIO 2015\PROJECTS\EXERCISE 5\EXERCISE 5\DEBUG\SHAPE.OBJ|C:\USERS\11550243\DOCUMENTS\VISUAL STUDIO 2015\PROJECTS\EXERCISE 5\EXERCISE 5\DEBUG\SQUARE.OBJ|C:\USERS\11550243\DOCUMENTS\VISUAL STUDIO 2015\PROJECTS\EXERCISE 5\EXERCISE 5\DEBUG\TRIANGLE.OBJ
C:\USERS\11550243\DOCUMENTS\VISUAL STUDIO 2015\PROJECTS\EXERCISE 5\DEBUG\EXERCISE 5.ILK
C:\USERS\11550243\DOCUMENTS\VISUAL STUDIO 2015\PROJECTS\EXERCISE 5\DEBUG\EXERCISE 5.EXE
C:\USERS\11550243\DOCUMENTS\VISUAL STUDIO 2015\PROJECTS\EXERCISE 5\DEBUG\EXERCISE 5.PDB
